[
    {
        "id": 716426,
        "title": "Cauliflower, Brown Rice, and Vegetable Fried Rice",
        "readyInMinutes": 30,
        "servings": 8,
        "sourceUrl": "http://fullbellysisters.blogspot.com/2012/01/cauliflower-fried-rice-more-veggies.html",
        "cuisine": "China",
        "image": "cauliflower-brown-rice-and-vegetable-fried-rice-716426.jpg"
    },
    {
        "id": 644826,
        "title": "Gluten Free Dairy Free Sugar Free Chinese Chicken Salad",
        "readyInMinutes": 45,
        "servings": 6,
        "sourceUrl": "http://www.foodista.com/recipe/ZSNGMXBF/gluten-free-dairy-free-sugar-free-chinese-chicken-salad",
        "cuisine": "China",
        "image": "Gluten-Free-Dairy-Free-Sugar-Free-Chinese-Chicken-Salad-644826.jpg"
    },
    {
        "id": 663150,
        "title": "Thai Savory Brown Fried Rice",
        "readyInMinutes": 45,
        "servings": 4,
        "sourceUrl": "https://www.foodista.com/recipe/7C3JZV44/thai-savory-brown-fried-rice",
        "cuisine": "China",
        "image": "Thai-Savory-Brown-Fried-Rice-663150.jpg"
    },
    {
        "id": 638642,
        "title": "Chinese Chicken Salad With Chipotle Dressing",
        "readyInMinutes": 45,
        "servings": 4,
        "sourceUrl": "https://www.foodista.com/recipe/JHBGMT48/bobby-flays-chinese-chicken-salad-with-chile-pea-mond-dressing",
        "cuisine": "China",
        "image": "chinese-chicken-salad-with-chipotle-dressing-638642.jpg"
    },
    {
        "id": 638649,
        "title": "Chinese Chicken Salad With Creamy Soy Dressing",
        "readyInMinutes": 30,
        "servings": 2,
        "sourceUrl": "http://www.foodista.com/recipe/BPHS2ZXF/chinese-chicken-salad-with-creamy-soy-dressing",
        "cuisine": "China",
        "image": "Chinese-Chicken-Salad-With-Creamy-Soy-Dressing-638649.jpg"
    },
    {
        "id": 638369,
        "title": "Korean Sweet n Sour Chicken",
        "readyInMinutes": 30,
        "servings": 4,
        "sourceUrl": "http://www.foodista.com/recipe/6458DTC4/chicken-tangsuyuk-sweet-n-sour-chicken",
        "cuisine": "China",
        "image": "Chicken-Tangsuyuk-(Korean-Sweet-n-Sour-Chicken)-638369.jpg"
    },
    {
        "id": 661351,
        "title": "Spinach Soup With Wontons",
        "readyInMinutes": 45,
        "servings": 4,
        "sourceUrl": "http://www.foodista.com/recipe/VPKSZHYP/spinach-soup-with-wontons",
        "cuisine": "China",
        "image": "Spinach-Soup-With-Wontons-661351.jpg"
    },
    {
        "id": 646425,
        "title": "Healthier Pork Fried Rice",
        "readyInMinutes": 45,
        "servings": 3,
        "sourceUrl": "https://www.foodista.com/recipe/KY4LQ345/healthier-pork-fried-rice",
        "cuisine": "China",
        "image": "Healthier-Pork-Fried-Rice-646425.jpg"
    },
    {
        "id": 656777,
        "title": "Pork Fried Rice",
        "readyInMinutes": 45,
        "servings": 4,
        "sourceUrl": "http://www.foodista.com/recipe/5N4TG2KX/pork-fried-rice",
        "cuisine": "China",
        "image": "Pork-Fried-Rice-656777.jpg"
    },
    {
        "id": 658270,
        "title": "Rice Noodles With Wonton/chinese Ravioli In Mushroom Sauce",
        "readyInMinutes": 45,
        "servings": 2,
        "sourceUrl": "http://www.foodista.com/recipe/GDCGKNJY/rice-noodles-with-wontonchinese-ravioli-in-mushroom-sauce",
        "cuisine": "China",
        "image": "Rice-Noodles-With-Wonton-chinese-Ravioli-In-Mushroom-Sauce-658270.jpg"
    },
    {
        "id": 633093,
        "title": "Autumn Fried Rice with Buffalo Nuts®",
        "readyInMinutes": 45,
        "servings": 8,
        "sourceUrl": "http://www.foodista.com/recipe/LTPYSJCV/autumn-fried-rice-with-buffalo-nuts",
        "cuisine": "China",
        "image": "Autumn-Fried-Rice-with-Buffalo-Nuts-633093.jpg"
    },
    {
        "id": 643808,
        "title": "Fried Stuffed Wontons with Healthy Dark Chocolate",
        "readyInMinutes": 45,
        "servings": 6,
        "sourceUrl": "http://www.foodista.com/recipe/C6DCLFYW/fried-stuffed-wontons",
        "cuisine": "China",
        "image": "Fried-Stuffed-Wontons-with-Healthy-Dark-Chocolate-643808.jpg"
    },
    {
        "id": 638714,
        "title": "Chinese Style Chicken and Noodle Stir Fry",
        "readyInMinutes": 45,
        "servings": 6,
        "sourceUrl": "https://www.foodista.com/recipe/8F8C33VG/chinese-style-chicken-and-noodle-stir-fry",
        "cuisine": "China",
        "image": "Chinese-Style-Chicken-and-Noodle-Stir-Fry-638714.jpg"
    },
    {
        "id": 642138,
        "title": "Easy Vegetable Fried Rice",
        "readyInMinutes": 20,
        "servings": 4,
        "sourceUrl": "http://www.foodista.com/recipe/H78BYQPP/easy-vegetable-fried-rice",
        "cuisine": "China",
        "image": "Easy-Vegetable-Fried-Rice-642138.jpg"
    },
    {
        "id": 638717,
        "title": "Chinese Steamed Flan",
        "readyInMinutes": 45,
        "servings": 6,
        "sourceUrl": "http://www.foodista.com/recipe/GNDGXPZK/chinese-steamed-flan",
        "cuisine": "China",
        "image": "Chinese-Steamed-Flan-638717.jpg"
    },
    {
        "id": 659906,
        "title": "Shrimp & Crab Egg Rolls",
        "readyInMinutes": 45,
        "servings": 6,
        "sourceUrl": "https://www.foodista.com/recipe/GH36G6M3/shrimp-crab-egg-rolls",
        "cuisine": "China",
        "image": "Shrimp---Crab-Egg-Rolls-659906.jpg"
    },
    {
        "id": 638668,
        "title": "Chinese Hot Pots Gluten-Free and Low-Carb",
        "readyInMinutes": 45,
        "servings": 8,
        "sourceUrl": "https://www.foodista.com/recipe/ZTHZGV7D/chinese-hot-pots-gluten-free-and-low-carb",
        "cuisine": "China",
        "image": "Chinese-Hot-Pots-Gluten-Free-and-Low-Carb-638668.jpg"
    },
    {
        "id": 659038,
        "title": "Salmon and Brown Rice Eggrolls",
        "readyInMinutes": 45,
        "servings": 20,
        "sourceUrl": "http://www.foodista.com/recipe/QM4GVVKY/salmon-and-brown-rice-eggrolls",
        "cuisine": "China",
        "image": "Salmon-and-Brown-Rice-Eggrolls-659038.jpg"
    },
    {
        "id": 643832,
        "title": "Fried Xocai Healthy Chocolate Stuffed Wontons",
        "readyInMinutes": 45,
        "servings": 6,
        "sourceUrl": "http://www.foodista.com/recipe/SFCFV28T/fried-xocai-healthy-chocolate-stuffed-wontons",
        "cuisine": "China",
        "image": "Fried-Xocai-Healthy-Chocolate-Stuffed-Wontons-643832.jpg"
    },
    {
        "id": 652354,
        "title": "Monte Cristo Egg Rolls",
        "readyInMinutes": 45,
        "servings": 6,
        "sourceUrl": "http://www.foodista.com/recipe/WBB6376N/monte-cristo-egg-rolls",
        "cuisine": "China",
        "image": "Monte-Cristo-Egg-Rolls-652354.jpg"
    },
    {
        "id": 638631,
        "title": "Chinese Bbq Pork Ribs",
        "readyInMinutes": 45,
        "servings": 6,
        "sourceUrl": "https://www.foodista.com/recipe/YTBZ6682/chinese-bbq-pork-ribs",
        "cuisine": "China",
        "image": "Chinese-Bbq-Pork-Ribs-638631.jpg"
    },
    {
        "id": 643786,
        "title": "Fried Rice - Chinese comfort food",
        "readyInMinutes": 45,
        "servings": 4,
        "sourceUrl": "https://www.foodista.com/recipe/8MCFVMXR/fried-rice-chinese-comfort-food",
        "cuisine": "China",
        "image": "Fried-Rice---Chinese-comfort-food-643786.jpg"
    },
    {
        "id": 682619,
        "title": "Shrimp Fried Rice",
        "readyInMinutes": 45,
        "servings": 4,
        "sourceUrl": "http://www.afrolems.com/2015/10/09/shrimp-fried-rice/",
        "cuisine": "China",
        "image": "Shrimp-Fried-Rice-682619.jpg"
    },
    {
        "id": 638729,
        "title": "Chinese Veg Fried rice",
        "readyInMinutes": 45,
        "servings": 4,
        "sourceUrl": "http://www.foodista.com/recipe/TTSVHLSH/chinese-veg-fried-rice",
        "cuisine": "China",
        "image": "Chinese-Veg-Fried-rice-638729.jpg"
    },
    {
        "id": 648475,
        "title": "Japanese Gyoza Pot Stickers",
        "readyInMinutes": 45,
        "servings": 6,
        "sourceUrl": "http://www.foodista.com/recipe/VVK5NQ7C/japanese-gyoza-pot-stickers",
        "cuisine": "China",
        "image": "Japanese-Gyoza-Pot-Stickers-648475.jpg"
    },
    {
        "id": 664650,
        "title": "Vegetarian Chinese Pot Stickers",
        "readyInMinutes": 45,
        "servings": 24,
        "sourceUrl": "https://www.foodista.com/recipe/KF58KP4Y/vegan-vegetarian-pot-stickers",
        "cuisine": "China",
        "image": "Vegetarian-Chinese-Pot-Stickers-664650.jpg"
    },
    {
        "id": 662744,
        "title": "Taco Egg Roll",
        "readyInMinutes": 45,
        "servings": 8,
        "sourceUrl": "https://www.foodista.com/recipe/MH35XSK3/taco-egg-roll",
        "cuisine": "China",
        "image": "Taco-Egg-Roll-662744.jpg"
    },
    {
        "id": 640323,
        "title": "Crab Wontons",
        "readyInMinutes": 45,
        "servings": 12,
        "sourceUrl": "https://www.foodista.com/recipe/ZM4M52TG/crab-wontons",
        "cuisine": "China",
        "image": "Crab-Wontons-640323.jpg"
    },
    {
        "id": 638693,
        "title": "Chinese Potstickers",
        "readyInMinutes": 45,
        "servings": 24,
        "sourceUrl": "https://www.foodista.com/recipe/GNBC6TDX/chinese-potstickers",
        "cuisine": "China",
        "image": "Chinese-Potstickers-638693.jpg"
    },
    {
        "id": 649129,
        "title": "Kung Pao Chicken With Peanuts",
        "readyInMinutes": 45,
        "servings": 12,
        "sourceUrl": "http://www.foodista.com/recipe/CWT7NX5T/kung-pao-chicken-with-peanuts",
        "cuisine": "China",
        "image": "Kung-Pao-Chicken-With-Peanuts-649129.jpg"
    },
    {
        "id": 664551,
        "title": "Vegetable Fried Wontons",
        "readyInMinutes": 45,
        "servings": 16,
        "sourceUrl": "https://www.foodista.com/recipe/HBQWW65S/vegetable-fried-wontons",
        "cuisine": "China",
        "image": "Vegetable-Fried-Wontons-664551.jpg"
    },
    {
        "id": 636411,
        "title": "Buffalo Chicken Wings Wonton Wraps",
        "readyInMinutes": 45,
        "servings": 20,
        "sourceUrl": "https://www.foodista.com/recipe/6LDTLRRB/buffalo-chicken-wings-wonton-wraps",
        "cuisine": "China",
        "image": "Buffalo-Chicken-Wings-Wonton-Wraps-636411.jpg"
    },
    {
        "id": 639741,
        "title": "Coconut Chow Mein Butterscotch Cookies",
        "readyInMinutes": 45,
        "servings": 24,
        "sourceUrl": "https://www.foodista.com/recipe/5MRHLT4K/coconut-chow-mein-butterscotch-cookies",
        "cuisine": "China",
        "image": "Coconut-Chow-Mein-Butterscotch-Cookies-639741.jpg"
    },
    {
        "id": 633754,
        "title": "Baked Ratatouille",
        "readyInMinutes": 45,
        "servings": 1,
        "sourceUrl": "http://www.foodista.com/recipe/24CCF5WL/baked-ratatouille",
        "cuisine": "Francesa",
        "image": "Baked-Ratatouille-633754.jpg"
    },
    {
        "id": 640693,
        "title": "Creamy Ratatouille Over Penne",
        "readyInMinutes": 45,
        "servings": 2,
        "sourceUrl": "http://www.foodista.com/recipe/PB852KG7/creamy-ratatouille",
        "cuisine": "Francesa",
        "image": "Creamy-Ratatouille-640693.jpg"
    },
    {
        "id": 657933,
        "title": "Ratatouille Pasta",
        "readyInMinutes": 45,
        "servings": 4,
        "sourceUrl": "https://www.foodista.com/recipe/RH3DM545/ratatouille-pasta",
        "cuisine": "Francesa",
        "image": "Ratatouille-Pasta-657933.jpg"
    },
    {
        "id": 658641,
        "title": "Roasted Ratatouille Gratin",
        "readyInMinutes": 45,
        "servings": 4,
        "sourceUrl": "http://www.foodista.com/recipe/VL2D5BNN/roasted-ratatouille-gratin",
        "cuisine": "Francesa",
        "image": "Roasted-Ratatouille-Gratin-658641.jpg"
    },
    {
        "id": 647687,
        "title": "Ratatouille",
        "readyInMinutes": 75,
        "servings": 8,
        "sourceUrl": "http://www.foodista.com/recipe/XGXJLGPQ/i-smell-a-ratatouille",
        "cuisine": "Francesa",
        "image": "I-Smell-A-Ratatouille-647687.jpg"
    },
    {
        "id": 657939,
        "title": "Ratatouille With Brie",
        "readyInMinutes": 45,
        "servings": 4,
        "sourceUrl": "https://www.foodista.com/recipe/YKQ5H3TL/ratatouille-with-brie",
        "cuisine": "Francesa",
        "image": "Ratatouille-With-Brie-657939.jpg"
    },
    {
        "id": 639599,
        "title": "Classic French Mussels",
        "readyInMinutes": 45,
        "servings": 2,
        "sourceUrl": "http://www.foodista.com/recipe/X2W746Q6/classic-french-mussels-done-light",
        "cuisine": "Francesa",
        "image": "Classic-French-Mussels-Done-Light-639599.jpg"
    },
    {
        "id": 648641,
        "title": "Julia Child's Ratatouille",
        "readyInMinutes": 45,
        "servings": 6,
        "sourceUrl": "http://www.foodista.com/recipe/XYCQZSJK/julia-child-s-ratatouille",
        "cuisine": "Francesa",
        "image": "Julia-Childs-Ratatouille-648641.jpg"
    },
    {
        "id": 715569,
        "title": "Strawberry Cheesecake Chocolate Crepes",
        "readyInMinutes": 40,
        "servings": 4,
        "sourceUrl": "https://www.pinkwhen.com/strawberry-cheesecake-chocolate-crepes/",
        "cuisine": "Francesa",
        "image": "strawberry-cheesecake-chocolate-crepes-715569.jpg"
    },
    {
        "id": 652651,
        "title": "Mushroom Crepes with Vegetarian Sauce",
        "readyInMinutes": 45,
        "servings": 8,
        "sourceUrl": "http://www.foodista.com/recipe/LZFR2QTP/mushroom-crepes-with-vegan-vegetarian-sauce",
        "cuisine": "Francesa"
    },
    {
        "id": 664689,
        "title": "Vegetarian Ratatouille",
        "readyInMinutes": 45,
        "servings": 6,
        "sourceUrl": "https://www.foodista.com/recipe/QP3VM3Y2/vegetarian-ratatouille",
        "cuisine": "Francesa",
        "image": "Vegetarian-Ratatouille-664689.jpg"
    },
    {
        "id": 659037,
        "title": "Salmon and Broccoli Crepes",
        "readyInMinutes": 45,
        "servings": 4,
        "sourceUrl": "http://www.foodista.com/recipe/B85Z3KP2/salmon-and-broccoli-crepes",
        "cuisine": "Francesa",
        "image": "Salmon-and-Broccoli-Crepes-659037.jpg"
    },
    {
        "id": 648638,
        "title": "Julia Child's Coq au Vin",
        "readyInMinutes": 45,
        "servings": 6,
        "sourceUrl": "http://www.foodista.com/recipe/FCQYLDSL/julia-child-s-coq-au-vin",
        "cuisine": "Francesa",
        "image": "Julia-Childs-Coq-au-Vin-648638.jpg"
    },
    {
        "id": 652652,
        "title": "Mushroom Crepes",
        "readyInMinutes": 45,
        "servings": 3,
        "sourceUrl": "http://www.foodista.com/recipe/PV7RBFHW/mushroom-crepes",
        "cuisine": "Francesa",
        "image": "Mushroom-Crepes-652652.jpg"
    },
    {
        "id": 643372,
        "title": "French Onion Salisbury Steak",
        "readyInMinutes": 45,
        "servings": 4,
        "sourceUrl": "http://www.foodista.com/recipe/5BFCJ8RS/french-onion-salisbury-steak",
        "cuisine": "Francesa",
        "image": "french-onion-salisbury-steak-643372.jpg"
    },
    {
        "id": 656506,
        "title": "Poached Prawns with Fettuccine and French String Beans",
        "readyInMinutes": 45,
        "servings": 4,
        "sourceUrl": "http://www.foodista.com/recipe/BV3MF4ZW/poached-prawns-with-fettuccine-and-french-string-beans",
        "cuisine": "Francesa",
        "image": "Poached-Prawns-with-Fettuccine-and-French-String-Beans-656506.jpg"
    },
    {
        "id": 642230,
        "title": "Egg Souffle With Bacon and Asparagus",
        "readyInMinutes": 60,
        "servings": 2,
        "sourceUrl": "http://www.foodista.com/recipe/7JDGL35Y/egg-souffle-with-bacon-and-asparagus",
        "cuisine": "Francesa",
        "image": "Egg-Souffle-With-Bacon-and-Asparagus-642230.jpg"
    },
    {
        "id": 643330,
        "title": "French Dips With Au Jus",
        "readyInMinutes": 45,
        "servings": 4,
        "sourceUrl": "http://www.foodista.com/recipe/5D53JKYH/french-dips-with-au-jus",
        "cuisine": "Francesa",
        "image": "French-Dips-With-Au-Jus-643330.jpg"
    },
    {
        "id": 632046,
        "title": "Alaskan Smoked Salmon Nicoise Salad With Alouette Crumbled Feta",
        "readyInMinutes": 45,
        "servings": 12,
        "sourceUrl": "http://www.foodista.com/recipe/C3D236LM/alaskan-smoked-salmon-nicoise-salad-with-alouette-crumbled-feta",
        "cuisine": "Francesa",
        "image": "Alaskan-Smoked-Salmon-Nicoise-Salad-With-Alouette-Crumbled-Feta-632046.jpg"
    },
    {
        "id": 653098,
        "title": "Niçoise Salad",
        "readyInMinutes": 45,
        "servings": 6,
        "sourceUrl": "http://www.foodista.com/recipe/B88VXBRK/nicoise-salad",
        "cuisine": "Francesa",
        "image": "Nioise-Salad-653098.jpg"
    },
    {
        "id": 649431,
        "title": "Leek and Mushroom Quiche",
        "readyInMinutes": 45,
        "servings": 4,
        "sourceUrl": "http://www.foodista.com/recipe/CF64ZCCX/leek-and-mushroom-quiche",
        "cuisine": "Francesa",
        "image": "Leek-and-Mushroom-Quiche-649431.jpg"
    },
    {
        "id": 637478,
        "title": "Chavrie Spinach Quiche",
        "readyInMinutes": 45,
        "servings": 8,
        "sourceUrl": "https://www.foodista.com/recipe/DDMB7GG4/chavrie-spinach-quiche",
        "cuisine": "Francesa",
        "image": "Chavrie-Spinach-Quiche-637478.jpg"
    },
    {
        "id": 640767,
        "title": "Crepes Suzette",
        "readyInMinutes": 45,
        "servings": 4,
        "sourceUrl": "http://www.foodista.com/recipe/KD8ZMRJ6/crepes-suzette",
        "cuisine": "Francesa",
        "image": "Crepes-Suzette-640767.jpg"
    },
    {
        "id": 636392,
        "title": "Buckwheat Crepes",
        "readyInMinutes": 45,
        "servings": 1,
        "sourceUrl": "https://www.foodista.com/recipe/MVWCZNGC/buckwheat-crepes",
        "cuisine": "Francesa",
        "image": "Buckwheat-Crepes-636392.jpg"
    },
    {
        "id": 643362,
        "title": "French Onion Marsala Soup",
        "readyInMinutes": 45,
        "servings": 4,
        "sourceUrl": "https://www.foodista.com/recipe/Y6YT6DKN/french-onion-marsala-soup",
        "cuisine": "Francesa",
        "image": "French-Onion-Marsala-Soup-643362.jpg"
    },
    {
        "id": 67308,
        "title": "Chocolate Souffle",
        "readyInMinutes": 64,
        "servings": 8,
        "sourceUrl": "http://www.foodista.com/recipe/ZHYCYXSL/chocolate-souffle",
        "cuisine": "Francesa",
        "image": "chocolate_souffle-67308.jpg"
    },
    {
        "id": 661249,
        "title": "Spinach & Ham Quiche",
        "readyInMinutes": 45,
        "servings": 8,
        "sourceUrl": "http://www.foodista.com/recipe/Z7KLXBR8/spinach-ham-quiche",
        "cuisine": "Francesa",
        "image": "Spinach---Ham-Quiche-661249.jpg"
    },
    {
        "id": 633267,
        "title": "Bacon and Arugula Quiche",
        "readyInMinutes": 45,
        "servings": 8,
        "sourceUrl": "http://www.foodista.com/recipe/G4TLNK7J/bacon-and-arugula-quiche",
        "cuisine": "Francesa",
        "image": "Bacon-and-Arugula-Quiche-633267.jpg"
    },
    {
        "id": 639597,
        "title": "Classic French Onion Soup",
        "readyInMinutes": 45,
        "servings": 4,
        "sourceUrl": "https://www.foodista.com/recipe/YJ4JZ8ZP/classic-french-onion-soup",
        "cuisine": "Francesa",
        "image": "Classic-French-Onion-Soup-639597.jpg"
    },
    {
        "id": 657511,
        "title": "Quiche with Swiss Chard and Mushroom",
        "readyInMinutes": 45,
        "servings": 7,
        "sourceUrl": "https://www.foodista.com/recipe/H5RCRWRL/quiche-with-swiss-chard-and-mushroom",
        "cuisine": "Francesa",
        "image": "Quiche-with-Swiss-Chard-and-Mushroom-657511.jpg"
    },
    {
        "id": 659459,
        "title": "Savory Carrot Souffle",
        "readyInMinutes": 45,
        "servings": 6,
        "sourceUrl": "http://www.foodista.com/recipe/CK45G2Q5/savory-carrot-souffle",
        "cuisine": "Francesa",
        "image": "Savory-Carrot-Souffle-659459.jpg"
    },
    {
        "id": 636598,
        "title": "Butternut Squash Souffle Side Dish",
        "readyInMinutes": 45,
        "servings": 4,
        "sourceUrl": "http://www.foodista.com/recipe/5RYRXBMV/butternut-squash-souffle",
        "cuisine": "Francesa",
        "image": "Butternut-Squash-Souffle-636598.jpg"
    },
    {
        "id": 637042,
        "title": "Caramelised Onion and Mushroom Quiche",
        "readyInMinutes": 45,
        "servings": 4,
        "sourceUrl": "https://www.foodista.com/recipe/S7XHL4C5/caramelised-onion-and-mushroom-quiche",
        "cuisine": "Francesa",
        "image": "Caramelised-Onion-and-Mushroom-Quiche-637042.jpg"
    },
    {
        "id": 664585,
        "title": "Vegetable Quiche Made With Fresh Tomatoes, Spinach, Basil and Goat Cheese",
        "readyInMinutes": 90,
        "servings": 8,
        "sourceUrl": "http://www.foodista.com/recipe/8KLLFP2C/vegetable-quiche-made-with-fresh-tomatoes-spinach-basil-and-goat-cheese",
        "cuisine": "Francesa",
        "image": "Vegetable-Quiche-Made-With-Fresh-Tomatoes--Spinach--Basil-and-Goat-Cheese-664585.jpg"
    },
    {
        "id": 665776,
        "title": "Zucchini Quiche & Almond Flax Crust",
        "readyInMinutes": 45,
        "servings": 6,
        "sourceUrl": "http://www.foodista.com/recipe/X4RDRKMQ/zucchini-quiche-almond-flax-crust",
        "cuisine": "Francesa",
        "image": "Zucchini-Quiche---Almond-Flax-Crust-665776.jpg"
    },
    {
        "id": 652605,
        "title": "Mushroom & Gruyere Quiche",
        "readyInMinutes": 45,
        "servings": 10,
        "sourceUrl": "http://www.foodista.com/recipe/7YD4F7D6/mushroom-gruyere-quiche",
        "cuisine": "Francesa",
        "image": "Mushroom---Gruyere-Quiche-652605.jpg"
    },
    {
        "id": 716407,
        "title": "Simple Whole Wheat Crepes",
        "readyInMinutes": 45,
        "servings": 4,
        "sourceUrl": "http://fullbellysisters.blogspot.com/2014/11/simple-whole-wheat-crepes.html",
        "cuisine": "Francesa",
        "image": "simple-whole-wheat-crepes-kingarthurflour-vitamix-716407.jpg"
    },
    {
        "id": 664533,
        "title": "Vegetable Cheddar Quiche",
        "readyInMinutes": 75,
        "servings": 8,
        "sourceUrl": "http://www.foodista.com/recipe/KH7DRH22/vegetable-cheddar-quiche",
        "cuisine": "Francesa",
        "image": "Vegetable-Cheddar-Quiche-664533.jpg"
    },
    {
        "id": 646348,
        "title": "Havarti and Asparagus Quiche",
        "readyInMinutes": 45,
        "servings": 8,
        "sourceUrl": "http://www.foodista.com/recipe/WVNLTYYJ/havarti-and-asparagus-quiche",
        "cuisine": "Francesa",
        "image": "Havarti-and-Asparagus-Quiche-646348.jpg"
    },
    {
        "id": 633399,
        "title": "Bailey's Irish Cream Crepes With Creme",
        "readyInMinutes": 45,
        "servings": 4,
        "sourceUrl": "http://www.foodista.com/recipe/SGM537DK/baileys-irish-cream-crepes-with-creme",
        "cuisine": "Francesa",
        "image": "Baileys-Irish-Cream-Crepes-With-Creme-633399.jpg"
    },
    {
        "id": 632949,
        "title": "Asparagus Quiche",
        "readyInMinutes": 45,
        "servings": 8,
        "sourceUrl": "http://www.foodista.com/recipe/W8Y7DRYC/asparagus-quiche",
        "cuisine": "Francesa",
        "image": "Asparagus-Quiche-632949.jpg"
    },
    {
        "id": 658681,
        "title": "Roasted Tomato and Garlic Quiche",
        "readyInMinutes": 45,
        "servings": 8,
        "sourceUrl": "https://www.foodista.com/recipe/XVT5HZGH/roasted-tomato-and-garlic-quiche",
        "cuisine": "Francesa",
        "image": "Roasted-Tomato-and-Garlic-Quiche-658681.jpg"
    },
    {
        "id": 643400,
        "title": "French Style Almond Saffron Cake",
        "readyInMinutes": 45,
        "servings": 12,
        "sourceUrl": "https://www.foodista.com/recipe/PC5G52PJ/french-style-almond-saffron-cake",
        "cuisine": "Francesa",
        "image": "French-Style-Almond-Saffron-Cake-643400.jpg"
    },
    {
        "id": 650650,
        "title": "Make Ahead Quiche",
        "readyInMinutes": 45,
        "servings": 8,
        "sourceUrl": "https://www.foodista.com/recipe/SLFFTBGD/make-ahead-quiche",
        "cuisine": "Francesa",
        "image": "Make-Ahead-Quiche-650650.jpg"
    },
    {
        "id": 637477,
        "title": "Chavrie Fresh Goat Cheese Souffle",
        "readyInMinutes": 45,
        "servings": 4,
        "sourceUrl": "https://www.foodista.com/recipe/GWMZZKXL/chavrie-fresh-goat-cheese-souffle",
        "cuisine": "Francesa",
        "image": "Chavrie-Fresh-Goat-Cheese-Souffle-637477.jpg"
    },
    {
        "id": 1095797,
        "title": "Lemon Rum Crêpes",
        "readyInMinutes": 40,
        "servings": 6,
        "sourceUrl": "https://www.foodista.com/recipe/CVV8QJ6Q/shrove-tuesday-cr-pes",
        "cuisine": "Francesa",
        "image": "shrove-tuesday-crpes-1095797.jpg"
    },
    {
        "id": 639590,
        "title": "Classic Custard Quiche Lorraine",
        "readyInMinutes": 45,
        "servings": 8,
        "sourceUrl": "http://www.foodista.com/recipe/LR7FP65S/classic-custard-quiche-lorraine",
        "cuisine": "Francesa",
        "image": "Classic-Custard-Quiche-Lorraine-639590.jpg"
    },
    {
        "id": 643394,
        "title": "French Silk Chocolate Cake",
        "readyInMinutes": 75,
        "servings": 10,
        "sourceUrl": "http://www.foodista.com/recipe/5RHV5GCB/french-silk-chocolate-cake",
        "cuisine": "Francesa",
        "image": "French-Silk-Chocolate-Cake-643394.jpg"
    },
    {
        "id": 653854,
        "title": "Orange Creme Brulee",
        "readyInMinutes": 45,
        "servings": 12,
        "sourceUrl": "http://www.foodista.com/recipe/LPH8V6QV/orange-creme-brulee",
        "cuisine": "Francesa",
        "image": "Orange-Creme-Brulee-653854.jpg"
    },
    {
        "id": 634070,
        "title": "Banana Creme Brulee",
        "readyInMinutes": 45,
        "servings": 8,
        "sourceUrl": "http://www.foodista.com/recipe/WG4YMF3R/banana-creme-brulee",
        "cuisine": "Francesa",
        "image": "Banana-Creme-Brulee-634070.jpg"
    },
    {
        "id": 658132,
        "title": "Reduced Fat Blueberry Cheesecake Crepes",
        "readyInMinutes": 45,
        "servings": 8,
        "sourceUrl": "http://www.foodista.com/recipe/Y6BXKNC4/reduced-fat-blueberry-cheesecake-crepes",
        "cuisine": "Francesa",
        "image": "Reduced-Fat-Blueberry-Cheesecake-Crepes-658132.jpg"
    },
    {
        "id": 640730,
        "title": "Creme Brulee",
        "readyInMinutes": 240,
        "servings": 8,
        "sourceUrl": "http://www.foodista.com/recipe/GK4Y7M72/creme-brulee-burnt-cream",
        "cuisine": "Francesa",
        "image": "Creme-Brulee-(Burnt-Cream)-640730.jpg"
    },
    {
        "id": 649328,
        "title": "Lavender Tea With Lemon French Macarons",
        "readyInMinutes": 45,
        "servings": 20,
        "sourceUrl": "http://www.foodista.com/recipe/ST2LF54Z/lavender-tea-with-lemon-french-macarons",
        "cuisine": "Francesa",
        "image": "Lavender-Tea-With-Lemon-French-Macarons-649328.jpg"
    },
    {
        "id": 715769,
        "title": "Broccolini Quinoa Pilaf",
        "readyInMinutes": 30,
        "servings": 2,
        "sourceUrl": "http://pickfreshfoods.com/broccolini-quinoa-pilaf/",
        "cuisine": "Italiana",
        "image": "broccolini-quinoa-pilaf-715769.jpg"
    },
    {
        "id": 659109,
        "title": "Salmon Quinoa Risotto",
        "readyInMinutes": 45,
        "servings": 4,
        "sourceUrl": "https://www.foodista.com/recipe/KH5STR7N/salmon-quinoa-risotto",
        "cuisine": "Italiana",
        "image": "Salmon-Quinoa-Risotto-659109.jpg"
    },
    {
        "id": 648279,
        "title": "Italian Tuna Pasta",
        "readyInMinutes": 20,
        "servings": 3,
        "sourceUrl": "http://www.foodista.com/recipe/4QNQXMDZ/italian-tuna-pasta",
        "cuisine": "Italiana",
        "image": "Italian-Tuna-Pasta-648279.jpg"
    },
    {
        "id": 648257,
        "title": "Italian Steamed Artichokes",
        "readyInMinutes": 35,
        "servings": 1,
        "sourceUrl": "http://www.foodista.com/recipe/J5VBFYJB/italian-steamed-artichokes",
        "cuisine": "Italiana",
        "image": "Italian-Steamed-Artichokes-648257.jpg"
    },
    {
        "id": 648247,
        "title": "Italian Seafood Stew",
        "readyInMinutes": 45,
        "servings": 3,
        "sourceUrl": "http://www.foodista.com/recipe/N5QMQ6DY/italian-seafood-stew",
        "cuisine": "Italiana",
        "image": "Italian-Seafood-Stew-648247.jpg"
    },
    {
        "id": 640819,
        "title": "Crispy Italian Cauliflower Poppers Appetizer",
        "readyInMinutes": 45,
        "servings": 4,
        "sourceUrl": "http://www.foodista.com/recipe/ZVNRZZ82/crispy-italian-cauliflower-poppers-with-marinara",
        "cuisine": "Italiana",
        "image": "Crispy-Italian-Cauliflower-Poppers-with-Marinara-640819.jpg"
    },
    {
        "id": 658753,
        "title": "Roma Tomato Bruschetta",
        "readyInMinutes": 45,
        "servings": 4,
        "sourceUrl": "http://www.foodista.com/recipe/M3RH6LBH/roma-tomato-bruschetta",
        "cuisine": "Italiana",
        "image": "Roma-Tomato-Bruschetta-658753.jpg"
    },
    {
        "id": 664737,
        "title": "Veggie Lasagna Rolls W/ Peppery Pecorino Marinara",
        "readyInMinutes": 45,
        "servings": 6,
        "sourceUrl": "http://www.foodista.com/recipe/LYYTJFHX/veggie-lasagna-rolls-w-peppery-pecorino-marinara",
        "cuisine": "Italiana",
        "image": "veggie-lasagna-rolls-w-peppery-pecorino-marinara-664737.jpg"
    },
    {
        "id": 716300,
        "title": "Plantain Pizza",
        "readyInMinutes": 45,
        "servings": 3,
        "sourceUrl": "http://www.afrolems.com/2014/03/08/plantain-pizza/",
        "cuisine": "Italiana",
        "image": "plantain-pizza-716300.jpg"
    },
    {
        "id": 664565,
        "title": "Vegetable Minestrone Soup",
        "readyInMinutes": 30,
        "servings": 4,
        "sourceUrl": "http://www.foodista.com/recipe/RMQ7YGLH/vegetable-minestrone-soup",
        "cuisine": "Italiana",
        "image": "Vegetable-Minestrone-Soup-664565.jpg"
    },
    {
        "id": 658515,
        "title": "Roasted Brussels Sprouts With Garlic",
        "readyInMinutes": 45,
        "servings": 4,
        "sourceUrl": "http://www.foodista.com/recipe/NG8FC7BR/roasted-brussels-sprouts-with-garlic",
        "cuisine": "Italiana",
        "image": "Roasted-Brussels-Sprouts-With-Garlic-658515.jpg"
    },
    {
        "id": 715538,
        "title": "What to make for dinner tonight?? Bruschetta Style Pork & Pasta",
        "readyInMinutes": 35,
        "servings": 5,
        "sourceUrl": "http://www.pinkwhen.com/make-dinner-tonight/",
        "cuisine": "Italiana",
        "image": "what-to-make-for-dinner-tonight-bruschetta-style-pork-pasta-715538.jpg"
    },
    {
        "id": 648275,
        "title": "Italian Tomato and Mozzarella Caprese",
        "readyInMinutes": 45,
        "servings": 4,
        "sourceUrl": "http://www.foodista.com/recipe/MK4TM4WZ/italian-tomato-and-mozzarella-caprese",
        "cuisine": "Italiana",
        "image": "Italian-Tomato-and-Mozzarella-Caprese-648275.jpg"
    },
    {
        "id": 632935,
        "title": "Asparagus Lemon Risotto",
        "readyInMinutes": 45,
        "servings": 4,
        "sourceUrl": "https://www.foodista.com/recipe/627Z85F8/asparagus-lemon-risotto",
        "cuisine": "Italiana",
        "image": "Asparagus-Lemon-Risotto-632935.jpg"
    },
    {
        "id": 648259,
        "title": "Italian String Beans With Anchovies and Breadcrumbs",
        "readyInMinutes": 45,
        "servings": 2,
        "sourceUrl": "http://www.foodista.com/recipe/GSLXPHB8/italian-string-beans-with-anchovies-and-breadcrumbs",
        "cuisine": "Italiana",
        "image": "Italian-String-Beans-With-Anchovies-and-Breadcrumbs-648259.jpg"
    },
    {
        "id": 647124,
        "title": "Homemade Thin Crust Pizza + Pesto + Potato",
        "readyInMinutes": 45,
        "servings": 6,
        "sourceUrl": "http://www.foodista.com/recipe/X27TPBXD/homemade-thin-crust-pizza-pesto-potato",
        "cuisine": "Italiana",
        "image": "Homemade-Thin-Crust-Pizza-+-Pesto-+-Potato-647124.jpg"
    },
    {
        "id": 656972,
        "title": "Potato Gnocchi With Kale and Mushrooms In A Goat Cheese Sauce",
        "readyInMinutes": 45,
        "servings": 4,
        "sourceUrl": "https://www.foodista.com/recipe/5VGBR8YR/potato-gnocchi-with-kale-and-mushrooms-in-a-goat-cheese-sauce",
        "cuisine": "Italiana",
        "image": "Potato-Gnocchi-With-Kale-and-Mushrooms-In-A-Goat-Cheese-Sauce-656972.jpg"
    },
    {
        "id": 658743,
        "title": "Roll Up Eggplant Lasagna",
        "readyInMinutes": 45,
        "servings": 3,
        "sourceUrl": "http://www.foodista.com/recipe/42GML287/roll-up-eggplant-lasagna",
        "cuisine": "Italiana",
        "image": "Roll-Up-Eggplant-Lasagna-658743.jpg"
    },
    {
        "id": 644885,
        "title": "Gluten Free Vegan Gnocchi",
        "readyInMinutes": 45,
        "servings": 4,
        "sourceUrl": "https://www.foodista.com/recipe/MMFLTKZS/gluten-free-vegan-gnocchi",
        "cuisine": "Italiana",
        "image": "Gluten-Free-Vegan-Gnocchi-644885.jpg"
    },
    {
        "id": 657312,
        "title": "Pumpkin gnocchi with basil and Parmesan",
        "readyInMinutes": 45,
        "servings": 6,
        "sourceUrl": "https://www.foodista.com/recipe/VWGPYN7W/pumpkin-gnocchi-with-basil-and-parmesan",
        "cuisine": "Italiana",
        "image": "Pumpkin-gnocchi-with-basil-and-Parmesan-657312.jpg"
    },
    {
        "id": 647563,
        "title": "How Sweet It Is Sweet Potato Lasagne",
        "readyInMinutes": 45,
        "servings": 6,
        "sourceUrl": "http://www.foodista.com/recipe/LYPLYH8P/how-sweet-it-is-sweet-potato-lasagne",
        "cuisine": "Italiana",
        "image": "How-Sweet-It-Is-Sweet-Potato-Lasagne-647563.jpg"
    },
    {
        "id": 658615,
        "title": "Roasted Peppers, Spinach & Feta Pizza",
        "readyInMinutes": 45,
        "servings": 1,
        "sourceUrl": "http://www.foodista.com/recipe/LWCPWJ2L/roasted-peppers-spinach-feta-pizza",
        "cuisine": "Italiana",
        "image": "Roasted-Peppers--Spinach---Feta-Pizza-658615.jpg"
    },
    {
        "id": 656571,
        "title": "Polla alla Parmigiana: Chicken Parmesan",
        "readyInMinutes": 45,
        "servings": 6,
        "sourceUrl": "http://www.foodista.com/recipe/PT5ZVJYJ/polla-alla-parmigiana",
        "cuisine": "Italiana",
        "image": "Polla-alla-Parmigiana-656571.jpg"
    },
    {
        "id": 655400,
        "title": "Pear and Pesto Crostini",
        "readyInMinutes": 45,
        "servings": 3,
        "sourceUrl": "https://www.foodista.com/recipe/7DGVJG5X/pear-and-pesto-crostini",
        "cuisine": "Italiana",
        "image": "Pear-and-Pesto-Crostini-655400.jpg"
    },
    {
        "id": 654125,
        "title": "Osso Buco",
        "readyInMinutes": 45,
        "servings": 6,
        "sourceUrl": "https://www.foodista.com/recipe/8J6ZKVBH/osso-buco",
        "cuisine": "Italiana",
        "image": "Osso-Buco-654125.jpg"
    },
    {
        "id": 1046983,
        "title": "Excellent No Fail and Easy Keto Zucchini Lasagna",
        "readyInMinutes": 60,
        "servings": 6,
        "sourceUrl": "https://www.pinkwhen.com/excellent-no-fail-and-easy-keto-zucchini-lasagna-recipe/",
        "cuisine": "Italiana",
        "image": "excellent-no-fail-and-easy-keto-zucchini-lasagna-1046983.jpg"
    },
    {
        "id": 640314,
        "title": "Crab Ravioli With Scallops and Gremolata",
        "readyInMinutes": 45,
        "servings": 2,
        "sourceUrl": "http://www.foodista.com/recipe/RY3QQFBF/crab-ravioli-with-scallops-and-gremolata",
        "cuisine": "Italiana",
        "image": "Crab-Ravioli-With-Scallops-and-Gremolata-640314.jpg"
    },
    {
        "id": 649270,
        "title": "Lasagna - Spinach Rolls",
        "readyInMinutes": 45,
        "servings": 6,
        "sourceUrl": "http://www.foodista.com/recipe/PQLRDLDZ/lasagna-spinach-rolls",
        "cuisine": "Italiana",
        "image": "Lasagna---Spinach-Rolls-649270.jpg"
    },
    {
        "id": 651922,
        "title": "Minestrone",
        "readyInMinutes": 45,
        "servings": 9,
        "sourceUrl": "https://www.foodista.com/recipe/6NHDDV6Z/minestrone",
        "cuisine": "Italiana",
        "image": "minestrone-651922.jpg"
    },
    {
        "id": 157991,
        "title": "Best Minestrone Soup Recipe",
        "author": "The Bald Chef",
        "readyInMinutes": 100,
        "servings": 6,
        "sourceUrl": "http://spoonacular.com/-1390324684768",
        "cuisine": "Italiana",
        "image": "Best-Minestrone-Soup-Recipe-157991.jpg"
    },
    {
        "id": 658632,
        "title": "Roasted Pumpkin and Barley Risotto",
        "readyInMinutes": 75,
        "servings": 3,
        "sourceUrl": "http://www.foodista.com/recipe/DBX24KMC/roasted-pumpkin-and-barley-risotto",
        "cuisine": "Italiana",
        "image": "roasted-pumpkin-and-barley-risotto-658632.jpg"
    },
    {
        "id": 638236,
        "title": "Chicken Pasta Primavera - Flower Patch Farmgirl Style",
        "readyInMinutes": 45,
        "servings": 8,
        "sourceUrl": "http://www.foodista.com/recipe/NDRHPYQP/chicken-pasta-primavera-flower-patch-farmgirl-style",
        "cuisine": "Italiana",
        "image": "Chicken-Pasta-Primavera---Flower-Patch-Farmgirl-Style-638236.jpg"
    },
    {
        "id": 642297,
        "title": "Eggplant Parmesan Roll-Ups",
        "readyInMinutes": 45,
        "servings": 4,
        "sourceUrl": "https://www.foodista.com/recipe/JWBD7XBC/eggplant-parmesan-roll-ups",
        "cuisine": "Italiana",
        "image": "Eggplant-Parmesan-Roll-Ups-642297.jpg"
    },
    {
        "id": 663366,
        "title": "Thin Crust Genoa Salami Pizza",
        "readyInMinutes": 45,
        "servings": 4,
        "sourceUrl": "http://www.foodista.com/recipe/G2PNVHZF/thin-crust-genoa-salami-pizza",
        "cuisine": "Italiana",
        "image": "Thin-Crust-Genoa-Salami-Pizza-663366.png"
    },
    {
        "id": 660292,
        "title": "Slow Cooker Minestrone Soup",
        "readyInMinutes": 45,
        "servings": 8,
        "sourceUrl": "https://www.foodista.com/recipe/ZLCGH4S4/slow-cooker-minestrone-soup",
        "cuisine": "Italiana",
        "image": "Slow-Cooker-Minestrone-Soup-660292.jpg"
    },
    {
        "id": 656544,
        "title": "Polenta gnocchi with savoy cabbage and cheese",
        "readyInMinutes": 45,
        "servings": 2,
        "sourceUrl": "http://www.foodista.com/recipe/WWSDXGJH/polenta-gnocchi-with-savoy-cabbage-and-cheese",
        "cuisine": "Italiana",
        "image": "Polenta-gnocchi-with-savoy-cabbage-and-cheese-656544.jpg"
    },
    {
        "id": 652856,
        "title": "My Favorite Minestrone",
        "readyInMinutes": 45,
        "servings": 10,
        "sourceUrl": "http://www.foodista.com/recipe/3W84DR84/my-favorite-minestrone",
        "cuisine": "Italiana",
        "image": "my-favorite-minestrone-652856.jpg"
    },
    {
        "id": 648048,
        "title": "Italian Beef Braciole",
        "readyInMinutes": 45,
        "servings": 4,
        "sourceUrl": "https://www.foodista.com/recipe/JTJX52B4/italian-beef-braciole",
        "cuisine": "Italiana",
        "image": "Italian-Beef-Braciole-648048.jpg"
    },
    {
        "id": 660215,
        "title": "Skillet Lasagna Topped with Ricotta",
        "readyInMinutes": 45,
        "servings": 4,
        "sourceUrl": "http://www.foodista.com/recipe/KRS5DZS5/skillet-lasagna-topped-with-ricotta",
        "cuisine": "Italiana",
        "image": "Skillet-Lasagna-Topped-with-Ricotta-660215.jpg"
    },
    {
        "id": 636610,
        "title": "Butternut, Chicken and Feta Risotto",
        "readyInMinutes": 45,
        "servings": 8,
        "sourceUrl": "http://www.foodista.com/recipe/3WRF8MR2/butternut-chicken-and-feta-risotto",
        "cuisine": "Italiana",
        "image": "Butternut--Chicken-and-Feta-Risotto-636610.jpg"
    },
    {
        "id": 649850,
        "title": "Lemon-Pepper Fettucine Alfredo",
        "readyInMinutes": 45,
        "servings": 4,
        "sourceUrl": "https://www.foodista.com/recipe/JYWSRGLY/lemon-pepper-fettucine-alfredo",
        "cuisine": "Italiana",
        "image": "Lemon-Pepper-Fettucine-Alfredo-649850.jpg"
    },
    {
        "id": 638235,
        "title": "Chicken Parmesan With Pasta",
        "readyInMinutes": 45,
        "servings": 4,
        "sourceUrl": "http://www.foodista.com/recipe/SGWW2KYZ/chicken-parmesan-with-pasta",
        "cuisine": "Italiana",
        "image": "Chicken-Parmesan-With-Pasta-638235.jpg"
    },
    {
        "id": 649292,
        "title": "Lasagne Roll Ups",
        "readyInMinutes": 45,
        "servings": 6,
        "sourceUrl": "http://www.foodista.com/recipe/FZ25J8SF/lasagne-roll-ups",
        "cuisine": "Italiana",
        "image": "Lasagne-Roll-Ups-649292.jpg"
    },
    {
        "id": 637811,
        "title": "Chestnut Risotto",
        "readyInMinutes": 45,
        "servings": 4,
        "sourceUrl": "https://www.foodista.com/recipe/RPLN2L3T/chestnut-risotto",
        "cuisine": "Italiana",
        "image": "Chestnut-Risotto-637811.jpg"
    },
    {
        "id": 657249,
        "title": "Pumpkin Banana Protein Oat Bars",
        "readyInMinutes": 45,
        "servings": 24,
        "sourceUrl": "https://www.foodista.com/recipe/MSBM3HDF/pumpkin-banana-protein-oat-bars",
        "cuisine": "Italiana",
        "image": "Pumpkin-Banana-Protein-Oat-Bars-657249.jpg"
    },
    {
        "id": 642325,
        "title": "Eggplant Parmesan",
        "readyInMinutes": 75,
        "servings": 4,
        "sourceUrl": "http://www.foodista.com/recipe/2FSLZVT2/eggplants-parmesan",
        "cuisine": "Italiana",
        "image": "Eggplants-parmesan-642325.jpg"
    },
    {
        "id": 662346,
        "title": "Super Kale and Sausage Lasagna",
        "readyInMinutes": 90,
        "servings": 6,
        "sourceUrl": "http://www.foodista.com/recipe/6GJQT6BK/super-kale-and-sausage-lasagna",
        "cuisine": "Italiana",
        "image": "Super-Kale-and-Sausage-Lasagna-662346.jpg"
    },
    {
        "id": 663227,
        "title": "The Best Quinoa Minestrone",
        "readyInMinutes": 45,
        "servings": 8,
        "sourceUrl": "https://www.foodista.com/recipe/2KN7GQSY/the-best-quinoa-minestrone",
        "cuisine": "Italiana"
    },
    {
        "id": 631824,
        "title": "(Lighter) Classic Eggplant Parmigiana",
        "readyInMinutes": 45,
        "servings": 4,
        "sourceUrl": "http://www.foodista.com/recipe/2WPC5YZB/lighter-classic-eggplant-parmigiana",
        "cuisine": "Italiana",
        "image": "(Lighter)-Classic-Eggplant-Parmigiana-631824.jpg"
    },
    {
        "id": 643175,
        "title": "Focaccia with Tomato, Green Onion and Garlic",
        "readyInMinutes": 45,
        "servings": 8,
        "sourceUrl": "http://www.foodista.com/recipe/PHNDBHTF/focaccia-with-tomato-green-onion-and-garlic",
        "cuisine": "Italiana",
        "image": "Focaccia-with-Tomato--Green-Onion-and-Garlic-643175.jpg"
    },
    {
        "id": 648238,
        "title": "Italian Sausage and Vegetable Soup",
        "readyInMinutes": 45,
        "servings": 6,
        "sourceUrl": "https://www.foodista.com/recipe/68Z6J73Y/italian-sausage-and-vegetable-soup",
        "cuisine": "Italiana",
        "image": "Italian-Sausage-and-Vegetable-Soup-648238.jpg"
    },
    {
        "id": 715560,
        "title": "World’s Greatest Lasagna Roll Ups",
        "readyInMinutes": 110,
        "servings": 18,
        "sourceUrl": "http://www.pinkwhen.com/worlds-greatest-lasagna-roll-ups-recipe/",
        "cuisine": "Italiana",
        "image": "worlds-greatest-lasagna-roll-ups-715560.jpg"
    },
    {
        "id": 651646,
        "title": "Mexican Lasagna with Chicken & Black Bean",
        "readyInMinutes": 45,
        "servings": 4,
        "sourceUrl": "http://www.foodista.com/recipe/FMYR7SHP/mexican-lasagna-with-chicken-black-bean",
        "cuisine": "Italiana",
        "image": "Mexican-Lasagna-with-Chicken---Black-Bean-651646.jpg"
    },
    {
        "id": 658024,
        "title": "Minestrone Soup",
        "readyInMinutes": 45,
        "servings": 8,
        "sourceUrl": "http://www.foodista.com/recipe/55CQV2NL/recipe-for-minestrone-soup",
        "cuisine": "Italiana",
        "image": "for-Minestrone-Soup-658024.jpg"
    },
    {
        "id": 657250,
        "title": "Pumpkin and Sausage Lasagna",
        "readyInMinutes": 45,
        "servings": 8,
        "sourceUrl": "http://www.foodista.com/recipe/FD43J7P8/pumpkin-and-sausage-lasagna",
        "cuisine": "Italiana",
        "image": "Pumpkin-and-Sausage-Lasagna-657250.jpg"
    },
    {
        "id": 640064,
        "title": "Coriander Ravioli With Pumpkin & Cottage Cheese Filling",
        "readyInMinutes": 45,
        "servings": 2,
        "sourceUrl": "http://www.foodista.com/recipe/RY7ZLSW6/coriander-ravioli-with-pumpkin-cottage-cheese-filling",
        "cuisine": "Italiana",
        "image": "Coriander-Ravioli-With-Pumpkin---Cottage-Cheese-Filling-640064.jpg"
    },
    {
        "id": 648097,
        "title": "Italian Chicken With Pepper",
        "readyInMinutes": 45,
        "servings": 4,
        "sourceUrl": "http://www.foodista.com/recipe/QGKC4RSJ/italian-chicken-with-pepper",
        "cuisine": "Italiana",
        "image": "Italian-Chicken-With-Pepper-648097.jpg"
    },
    {
        "id": 650651,
        "title": "Make It Quick Italian Shrimp Rolls",
        "readyInMinutes": 45,
        "servings": 2,
        "sourceUrl": "https://www.foodista.com/recipe/476BQSYP/make-it-quick-italian-shrimp-rolls",
        "cuisine": "Italiana",
        "image": "Make-It-Quick-Italian-Shrimp-Rolls-650651.jpg"
    },
    {
        "id": 636360,
        "title": "Brussels Sprout Carbonara with Fettuccini",
        "readyInMinutes": 45,
        "servings": 4,
        "sourceUrl": "https://www.foodista.com/recipe/52L48RRV/brussel-sprout-carbonara-with-fettuccini",
        "cuisine": "Italiana",
        "image": "Brussel-Sprout-Carbonara-with-Fettuccini-636360.jpg"
    },
    {
        "id": 638002,
        "title": "Chicken Cacciatore",
        "readyInMinutes": 45,
        "servings": 6,
        "sourceUrl": "https://www.foodista.com/recipe/7M55MLHY/chicken-cacciatore",
        "cuisine": "Italiana",
        "image": "Chicken-Cacciatore-638002.jpg"
    },
    {
        "id": 656329,
        "title": "Pizza bites with pumpkin",
        "readyInMinutes": 45,
        "servings": 4,
        "sourceUrl": "https://www.foodista.com/recipe/SHKG55X4/pizza-bites-with-pumpkin",
        "cuisine": "Italiana",
        "image": "Pizza-bites-with-pumpkin-656329.jpg"
    },
    {
        "id": 650045,
        "title": "Lightened Ricotta Stuffed Shells With Italian Sausage Ragu",
        "readyInMinutes": 45,
        "servings": 8,
        "sourceUrl": "https://www.foodista.com/recipe/3T35RV75/lightened-ricotta-stuffed-shells-with-italian-sausage-ragu",
        "cuisine": "Italiana",
        "image": "Lightened-Ricotta-Stuffed-Shells-With-Italian-Sausage-Ragu-650045.jpg"
    },
    {
        "id": 649340,
        "title": "Layered Baked Eggplant Parmesan",
        "readyInMinutes": 60,
        "servings": 4,
        "sourceUrl": "http://www.foodista.com/recipe/6P26YNZH/layered-baked-eggplant-parmesan",
        "cuisine": "Italiana",
        "image": "Layered-Baked-Eggplant-Parmesan-649340.jpg"
    },
    {
        "id": 644205,
        "title": "Garden Vegetable Ravioli With Tomato Brodo",
        "readyInMinutes": 45,
        "servings": 6,
        "sourceUrl": "http://www.foodista.com/recipe/Q8KRWHSR/garden-vegetable-ravioli-with-tomato-brodo",
        "cuisine": "Italiana",
        "image": "Garden-Vegetable-Ravioli-With-Tomato-Brodo-644205.jpg"
    },
    {
        "id": 649280,
        "title": "Lasagna Silvia",
        "readyInMinutes": 45,
        "servings": 8,
        "sourceUrl": "https://www.foodista.com/recipe/5CWM5FKL/lasagna-silvia",
        "cuisine": "Italiana",
        "image": "Lasagna-Silvia-649280.jpg"
    },
    {
        "id": 642293,
        "title": "Eggplant Parmesan",
        "readyInMinutes": 45,
        "servings": 4,
        "sourceUrl": "https://www.foodista.com/recipe/S6VBT8C3/eggplant-parmesan",
        "cuisine": "Italiana",
        "image": "Eggplant-Parmesan-642293.jpg"
    },
    {
        "id": 651381,
        "title": "Meaty One Dish Risotto",
        "readyInMinutes": 45,
        "servings": 6,
        "sourceUrl": "http://www.foodista.com/recipe/FJ4MLYRN/meaty-one-dish-risotto",
        "cuisine": "Italiana",
        "image": "Meaty-One-Dish-Risotto-651381.jpg"
    },
    {
        "id": 1426885,
        "title": "Quick and Easy No-Boil Lasagna",
        "author": "coffeebean",
        "readyInMinutes": 75,
        "servings": 4,
        "sourceUrl": "https://spoonacular.com/site-1586179475106",
        "cuisine": "Italiana",
        "image": "quick-and-easy-no-boil-lasagna-1426885.jpg"
    },
    {
        "id": 1182871,
        "title": "Shrimp Scampi Zoodles",
        "readyInMinutes": 15,
        "servings": 2,
        "sourceUrl": "https://www.pinkwhen.com/shrimp-scampi-zoodles-recipe/",
        "cuisine": "Italiana",
        "image": "shrimp-scampi-zoodles-1182871.jpg"
    },
    {
        "id": 657159,
        "title": "Prosciutto and Mushroom Ravioli With Basil Browned Butter Sauce",
        "readyInMinutes": 45,
        "servings": 4,
        "sourceUrl": "http://www.foodista.com/recipe/FM8XPRRP/prosciutto-and-mushroom-ravioli-with-basil-browned-butter-sauce",
        "cuisine": "Italiana",
        "image": "Prosciutto-and-Mushroom-Ravioli-With-Basil-Browned-Butter-Sauce-657159.jpg"
    },
    {
        "id": 622598,
        "title": "Pittata - Pizza Frittata",
        "author": "coffeebean",
        "readyInMinutes": 30,
        "servings": 2,
        "sourceUrl": "https://spoonacular.com/-1418233867224",
        "cuisine": "Italiana",
        "image": "Pittata---Pizza-Frittata-622598.jpg"
    },
    {
        "id": 653238,
        "title": "Noodle Free Eggplant and Spinach Lasagna",
        "readyInMinutes": 45,
        "servings": 6,
        "sourceUrl": "http://www.foodista.com/recipe/6BJ767ZG/noodle-free-eggplant-and-spinach-lasagna",
        "cuisine": "Italiana",
        "image": "Noodle-Free-Eggplant-and-Spinach-Lasagna-653238.jpg"
    },
    {
        "id": 642371,
        "title": "Elk Italian Sausage Pizza With Ricotta Cheese, Sautéd Mushrooms and Onion",
        "readyInMinutes": 45,
        "servings": 4,
        "sourceUrl": "https://www.foodista.com/recipe/62GDZ335/elk-italian-sausage-pizza-with-ricotta-cheese-sauted-mushrooms-and-onion",
        "cuisine": "Italiana",
        "image": "Elk-Italian-Sausage-Pizza-With-Ricotta-Cheese--Sautd-Mushrooms-and-Onion-642371.jpg"
    },
    {
        "id": 648118,
        "title": "Sauteed Italian Eggplant Side Dish",
        "readyInMinutes": 45,
        "servings": 4,
        "sourceUrl": "http://www.foodista.com/recipe/7CDB77H8/italian-eggplant-sauteed",
        "cuisine": "Italiana",
        "image": "Italian-Eggplant-Sauteed-648118.jpg"
    },
    {
        "id": 641962,
        "title": "Easy Eggplant Parmesan",
        "readyInMinutes": 45,
        "servings": 4,
        "sourceUrl": "https://www.foodista.com/recipe/XQNPGJDB/easy-eggplant-parmesan",
        "cuisine": "Italiana",
        "image": "Easy-Eggplant-Parmesan-641962.jpg"
    },
    {
        "id": 653368,
        "title": "Nutmeg and Rosemary Butternut Squash Risotto",
        "readyInMinutes": 45,
        "servings": 6,
        "sourceUrl": "http://www.foodista.com/recipe/DK3BB5YD/nutmeg-and-rosemary-butternut-squash-risotto",
        "cuisine": "Italiana",
        "image": "Nutmeg-and-Rosemary-Butternut-Squash-Risotto-653368.jpg"
    },
    {
        "id": 656548,
        "title": "Polenta Pie With Italian Toppings",
        "readyInMinutes": 45,
        "servings": 6,
        "sourceUrl": "https://www.foodista.com/recipe/SS2Y4VYB/polenta-pie-with-italian-toppings",
        "cuisine": "Italiana",
        "image": "Polenta-Pie-With-Italian-Toppings-656548.jpg"
    },
    {
        "id": 664233,
        "title": "Unctuous Mushroom Risotto",
        "readyInMinutes": 45,
        "servings": 3,
        "sourceUrl": "https://www.foodista.com/recipe/S424F3C7/unctuous-mushroom-risotto",
        "cuisine": "Italiana",
        "image": "Unctuous-Mushroom-Risotto-664233.jpg"
    },
    {
        "id": 640696,
        "title": "Creamy Risotto With Smoked Turkey Sausage",
        "readyInMinutes": 45,
        "servings": 6,
        "sourceUrl": "https://www.foodista.com/recipe/5ZCJWFTN/creamy-risotto-with-smoked-turkey-sausage",
        "cuisine": "Italiana",
        "image": "Creamy-Risotto-With-Smoked-Turkey-Sausage-640696.jpg"
    },
    {
        "id": 650654,
        "title": "Make Olive Garden’s Delicious Pasta Fagioli At Home",
        "readyInMinutes": 45,
        "servings": 20,
        "sourceUrl": "https://www.foodista.com/recipe/3Q2XBWRG/make-olive-gardens-delicious-pasta-fagioli-at-home",
        "cuisine": "Italiana",
        "image": "Make-Olive-Gardens-Delicious-Pasta-Fagioli-At-Home-650654.jpg"
    },
    {
        "id": 663771,
        "title": "Traditional Panzanella",
        "readyInMinutes": 45,
        "servings": 6,
        "sourceUrl": "http://www.foodista.com/recipe/2RZXZMSL/traditional-panzanella",
        "cuisine": "Italiana",
        "image": "Traditional-Panzanella-663771.jpg"
    },
    {
        "id": 642595,
        "title": "Farmer's Market Wild Mushroom Risotto",
        "readyInMinutes": 45,
        "servings": 6,
        "sourceUrl": "http://www.foodista.com/recipe/4C8YNZY6/farmers-market-wild-mushroom-risotto",
        "cuisine": "Italiana",
        "image": "Farmers-Market-Wild-Mushroom-Risotto-642595.jpg"
    },
    {
        "id": 636593,
        "title": "Butternut Squash Pizza",
        "readyInMinutes": 45,
        "servings": 4,
        "sourceUrl": "https://www.foodista.com/recipe/7ZRQJMW4/butternut-squash-pizza",
        "cuisine": "Italiana",
        "image": "Butternut-Squash-Pizza-636593.jpg"
    },
    {
        "id": 644917,
        "title": "Gnocchi and Wilted Spinach Salad",
        "readyInMinutes": 45,
        "servings": 4,
        "sourceUrl": "https://www.foodista.com/recipe/BV8CS8DP/gnocchi-and-wilted-spinach-salad",
        "cuisine": "Italiana",
        "image": "Gnocchi-and-Wilted-Spinach-Salad-644917.jpg"
    },
    {
        "id": 636355,
        "title": "BRUSCHETTA STUFFED PORTOBELLOS",
        "readyInMinutes": 45,
        "servings": 2,
        "sourceUrl": "https://www.foodista.com/recipe/RZQHTR2C/bruschetta-stuffed-portobellos",
        "cuisine": "Italiana",
        "image": "BRUSCHETTA-STUFFED-PORTOBELLOS-636355.jpg"
    },
    {
        "id": 649768,
        "title": "Lemon Rosemary Risotto",
        "readyInMinutes": 45,
        "servings": 4,
        "sourceUrl": "http://www.foodista.com/recipe/JRHN4HDK/lemon-rosemary-risotto",
        "cuisine": "Italiana",
        "image": "Lemon-Rosemary-Risotto-649768.jpg"
    },
    {
        "id": 652722,
        "title": "Mushroom-Pea Risotto",
        "readyInMinutes": 45,
        "servings": 8,
        "sourceUrl": "http://www.foodista.com/recipe/PJJGYXWX/mushroom-pea-risotto",
        "cuisine": "Italiana",
        "image": "Mushroom-Pea-Risotto-652722.jpg"
    },
    {
        "id": 632781,
        "title": "Arugula & Feta Pasta",
        "readyInMinutes": 45,
        "servings": 4,
        "sourceUrl": "https://www.foodista.com/recipe/TKHGFFJW/arugula-feta-pasta",
        "cuisine": "Italiana",
        "image": "Arugula---Feta-Pasta-632781.jpg"
    },
    {
        "id": 654005,
        "title": "Orecchiette Carbonara",
        "readyInMinutes": 45,
        "servings": 4,
        "sourceUrl": "http://www.foodista.com/recipe/MTL2VV7V/orecchiette-carbonara",
        "cuisine": "Italiana",
        "image": "Orecchiette-Carbonara-654005.jpg"
    },
    {
        "id": 664481,
        "title": "Vegan Risotto Cakes",
        "readyInMinutes": 45,
        "servings": 4,
        "sourceUrl": "http://www.foodista.com/recipe/Y6PW2Y4C/vegan-risotto-cakes",
        "cuisine": "Italiana",
        "image": "Vegan-Risotto-Cakes-664481.jpg"
    },
    {
        "id": 663745,
        "title": "Totally Fresh Tomato Lasagna",
        "readyInMinutes": 75,
        "servings": 4,
        "sourceUrl": "http://www.foodista.com/recipe/RGPCXQ4J/totally-fresh-tomato-lasagna",
        "cuisine": "Italiana",
        "image": "Totally-Fresh-Tomato-Lasagna-663745.jpg"
    },
    {
        "id": 633648,
        "title": "Baked gnocchi with sage and cheese",
        "readyInMinutes": 45,
        "servings": 6,
        "sourceUrl": "http://www.foodista.com/recipe/LGH8WWGK/baked-gnocchi-with-sage-and-cheese",
        "cuisine": "Italiana",
        "image": "Baked-gnocchi-with-sage-and-cheese-633648.jpg"
    },
    {
        "id": 665285,
        "title": "Whole Wheat Focaccia Bread with Caramelized Onion",
        "readyInMinutes": 45,
        "servings": 10,
        "sourceUrl": "http://www.foodista.com/recipe/X7XVYFSY/whole-wheat-focaccia-bread-with-caramelized-onion",
        "cuisine": "Italiana",
        "image": "Whole-Wheat-Focaccia-Bread-with-Caramelized-Onion-665285.jpg"
    },
    {
        "id": 649496,
        "title": "Lemon and Arënkha Msc Risotto With Anchovy-Fried Crumbs",
        "readyInMinutes": 45,
        "servings": 4,
        "sourceUrl": "http://www.foodista.com/recipe/7K4XQWJV/lemon-and-arenkha-msc-risotto-with-anchovy-fried-crumbs",
        "cuisine": "Italiana",
        "image": "Lemon-and-Arnkha-Msc-Risotto-With-Anchovy-Fried-Crumbs-649496.jpg"
    },
    {
        "id": 665446,
        "title": "X-Country Double Lobster Risotto",
        "readyInMinutes": 45,
        "servings": 4,
        "sourceUrl": "https://www.foodista.com/recipe/ZJNJZ2D7/x-country-double-lobster-risotto",
        "cuisine": "Italiana",
        "image": "X-Country-Double-Lobster-Risotto-665446.jpg"
    },
    {
        "id": 645020,
        "title": "Golden Potato and Caramelized Onion Flat Bread Pizza",
        "readyInMinutes": 60,
        "servings": 3,
        "sourceUrl": "http://www.foodista.com/recipe/88BV6PSJ/golden-potato-and-caramelized-onion-flat-bread-pizza",
        "cuisine": "Italiana",
        "image": "Golden-Potato-and-Caramelized-Onion-Flat-Bread-Pizza-645020.jpg"
    },
    {
        "id": 654573,
        "title": "Panzanella Toscana",
        "readyInMinutes": 45,
        "servings": 6,
        "sourceUrl": "http://www.foodista.com/recipe/5FPYMXJB/panzanella-toscana",
        "cuisine": "Italiana",
        "image": "Panzanella-Toscana-654573.jpg"
    },
    {
        "id": 640864,
        "title": "Crock Pot Lasagna",
        "readyInMinutes": 45,
        "servings": 8,
        "sourceUrl": "https://www.foodista.com/recipe/QTRKQVWX/crock-pot-lasagna",
        "cuisine": "Italiana",
        "image": "Crock-Pot-Lasagna-640864.jpg"
    },
    {
        "id": 639794,
        "title": "Coconut milk risotto (Arborio rice pudding)",
        "readyInMinutes": 45,
        "servings": 8,
        "sourceUrl": "http://www.foodista.com/recipe/RNYXJNJC/coconut-milk-risotto-arborio-rice-pudding",
        "cuisine": "Italiana",
        "image": "Coconut-milk-risotto-(Arborio-rice-pudding)-639794.jpg"
    },
    {
        "id": 657956,
        "title": "Ravioli With Arugula, Pine Nuts, Raisins & Cream",
        "readyInMinutes": 45,
        "servings": 2,
        "sourceUrl": "https://www.foodista.com/recipe/C5K7WMYP/ravioli-with-arugula-pine-nuts-raisins-cream",
        "cuisine": "Italiana",
        "image": "Ravioli-With-Arugula--Pine-Nuts--Raisins---Cream-657956.jpg"
    },
    {
        "id": 638626,
        "title": "Chimichurri Skirt Steak with Grilled Asparagus",
        "readyInMinutes": 45,
        "servings": 4,
        "sourceUrl": "http://www.foodista.com/recipe/3VXHGQB6/chimichurri-skirt-steak-with-grilled-asparagus",
        "cuisine": "América Latina",
        "image": "Chimichurri-Skirt-Steak-with-Grilled-Asparagus-638626.jpg"
    },
    {
        "id": 643055,
        "title": "Flank Steak With Chimichurri Sauce",
        "readyInMinutes": 75,
        "servings": 4,
        "sourceUrl": "http://www.foodista.com/recipe/PZ25ZDDL/flank-steak-with-chimichurri-sauce",
        "cuisine": "América Latina",
        "image": "Flank-Steak-With-Chimichurri-Sauce-643055.jpg"
    },
    {
        "id": 654432,
        "title": "Pan Seared Lamb Loin With Chimichurri & Roasted Trio Squash Salad With Goat Cheese and Pinenuts",
        "readyInMinutes": 45,
        "servings": 4,
        "sourceUrl": "http://www.foodista.com/recipe/46RBKQJ7/pan-seared-lamb-loin-with-chimmichurri-roasted-trio-squash-salad-with-goat-cheese-and-pinenuts",
        "cuisine": "América Latina",
        "image": "Pan-Seared-Lamb-Loin-With-Chimichurri---Roasted-Trio-Squash-Salad-With-Goat-Cheese-and-Pinenuts-654432.jpg"
    },
    {
        "id": 631912,
        "title": "A Post Thanksgiving “sopa De Tortilla”",
        "readyInMinutes": 150,
        "servings": 5,
        "sourceUrl": "http://www.foodista.com/recipe/JF3JJTKG/a-post-thanksgiving-sopa-de-tortilla",
        "cuisine": "América Latina",
        "image": "A-Post-Thanksgiving-sopa-De-Tortilla-631912.jpg"
    },
    {
        "id": 643428,
        "title": "Fresh and Simple Swai Ceviche",
        "readyInMinutes": 45,
        "servings": 4,
        "sourceUrl": "http://www.foodista.com/recipe/YN4MPXC7/fresh-and-simple-swai-ceviche",
        "cuisine": "América Latina",
        "image": "Fresh-and-Simple-Swai-Ceviche-643428.jpg"
    },
    {
        "id": 650225,
        "title": "Liz's Lomo Saltado",
        "readyInMinutes": 45,
        "servings": 4,
        "sourceUrl": "https://www.foodista.com/recipe/BD7L33QN/lizs-lomo-saltado",
        "cuisine": "América Latina",
        "image": "Lizs-Lomo-Saltado-650225.jpg"
    },
    {
        "id": 632021,
        "title": "Ahi Tuna Ceviche",
        "readyInMinutes": 45,
        "servings": 3,
        "sourceUrl": "http://www.foodista.com/recipe/7FBJ3QLN/ahi-tuna-ceviche",
        "cuisine": "América Latina",
        "image": "Ahi-Tuna-Ceviche-632021.jpg"
    },
    {
        "id": 638619,
        "title": "Chimichurri",
        "readyInMinutes": 45,
        "servings": 4,
        "sourceUrl": "http://www.foodista.com/recipe/F3P4Y5Z4/chimichurri",
        "cuisine": "América Latina",
        "image": "Chimichurri-638619.jpg"
    },
    {
        "id": 644907,
        "title": "Gluten-Free Tres Leches Cake",
        "readyInMinutes": 45,
        "servings": 10,
        "sourceUrl": "http://www.foodista.com/recipe/HWN4KLBF/gluten-free-tres-leches-cake",
        "cuisine": "América Latina",
        "image": "gluten-free-tres-leches-cake-644907.jpg"
    },
    {
        "id": 664959,
        "title": "Warm Cucumber Soup (Sopa De Pepinos)",
        "readyInMinutes": 45,
        "servings": 6,
        "sourceUrl": "http://www.foodista.com/recipe/ZSTJJYQV/warm-cucumber-soup-sopa-de-pepinos",
        "cuisine": "América Latina",
        "image": "Warm-Cucumber-Soup-(Sopa-De-Pepinos)-664959.jpg"
    }
]